{
    "swagger": "2.0",
    "info": {
        "title": "E-Commerce web application",
        "description": "Move your app forward with the Ecommerce API",
        "version": "1.0.0"
    },
    "host": "mysterious-inlet-4675.herokuapp.com",
    "schemes": [
        "https"
    ],
    "basePath": "/api",
    "produces": [
        "application/json"
    ],
    "paths": {
        "/customers": {
            "get": {
                "description": "Retrieve list of customers.\n",
                "produces": [
                    "application/json"
                ],
                "responses": {
                    "200": {
                        "description": "Successful operation",
                        "schema": {
                            "type": "array",
                            "items": {
                                "$ref": "#/definitions/Customer"
                            }
                        }
                    },
                    "default": {
                        "description": "Unexpected error"
                    }
                }
            },
            "post": {
                "description": "Create a new customer.\n",
                "consumes": "application/json",
                "parameters": [
                    {
                        "name": "body",
                        "required": true,
                        "schema": {
                            "$ref": "#/definitions/Customer"
                        }
                    }
                ],
                "responses": {
                    "201": {
                        "description": "A new customer is created."
                    }
                }
            }
        },
        "/customers/{customerId}": {
            "get": {
                "description": "Retrieve detailed information about specified customer.\n",
                "customerId": "getById",
                "parameters": [
                    {
                        "name": "customerId",
                        "in": "query",
                        "required": true,
                        "type": "number",
                        "format": "integer"
                    }
                ],
                "produces": [
                    "application/json"
                ],
                "responses": {
                    "200": {
                        "description": "Successful operation",
                        "schema": {
                            "$ref": "#/definitions/Customer"
                        }
                    }
                }
            },
            "put": {
                "description": "Updates the specified customer.\n",
                "consumes": [
                    "application/json"
                ],
                "parameters": [
                    {
                        "name": "body",
                        "in": "body",
                        "required": true,
                        "schema": {
                            "$ref": "#/definitions/Customer"
                        }
                    }
                ],
                "responses": {
                    "200": {
                        "description": "Successful operation"
                    }
                }
            },
            "delete": {
                "description": "Delete a single customer.\n",
                "parameters": [
                    {
                        "name": "customerId",
                        "in": "query",
                        "required": true,
                        "type": "number",
                        "format": "integer"
                    }
                ],
                "responses": {
                    "200": {
                        "description": "Successful operation"
                    }
                }
            }
        },
        "/customer/{customerId}/login": {
            "get": {
                "description": "Returns the login of the customer.\n",
                "parameters": [
                    {
                        "name": "customerId",
                        "in": "query",
                        "required": true,
                        "type": "number",
                        "format": "integer"
                    }
                ],
                "responses": {
                    "200": {
                        "description": "Successful operation"
                    }
                }
            }
        },
        "/customers/{customerId}/addresses": {
            "post": {
                "description": "Adds the address to the customer.\n",
                "parameters": [
                    {
                        "name": "customerId",
                        "in": "query",
                        "required": true,
                        "type": "number",
                        "format": "integer"
                    },
                    {
                        "name": "body",
                        "in": "body",
                        "required": true,
                        "schema": {
                            "$ref": "#/definitions/Address"
                        }
                    }
                ],
                "responses": {
                    "201": {
                        "description": "a new address is created"
                    }
                }
            },
            "get": {
                "description": "Returns all the addresses of the customer.\n",
                "parameters": [
                    {
                        "name": "customerId",
                        "in": "query",
                        "required": true,
                        "type": "number",
                        "format": "integer"
                    }
                ],
                "responses": {
                    "200": {
                        "description": null,
                        "schema": {
                            "type": "array",
                            "items": {
                                "$ref": "#/definitions/Address"
                            }
                        }
                    }
                }
            }
        },
        "/customers/{customerId}/addresses/{id}": {
            "get": {
                "description": "Returns the address of the customer.\n",
                "parameters": [
                    {
                        "name": "customerId",
                        "in": "query",
                        "required": true,
                        "type": "number",
                        "format": "integer"
                    },
                    {
                        "name": "id",
                        "in": "query",
                        "required": true,
                        "type": "number",
                        "format": "integer"
                    }
                ],
                "responses": {
                    "200": {
                        "description": null,
                        "schema": {
                            "$ref": "#/definitions/Address"
                        }
                    }
                }
            },
            "put": {
                "description": "Updates the address of the customer.\n",
                "parameters": [
                    {
                        "name": "customerId",
                        "in": "query",
                        "required": true,
                        "type": "number",
                        "format": "integer"
                    },
                    {
                        "name": "id",
                        "in": "query",
                        "required": true,
                        "type": "number",
                        "format": "integer"
                    },
                    {
                        "name": "body",
                        "required": true,
                        "schema": {
                            "$ref": "#/definitions/Address"
                        }
                    }
                ],
                "responses": {
                    "200": {
                        "description": "Address is updated"
                    }
                }
            },
            "delete": {
                "description": "Removes the address of the customer.\n",
                "parameters": [
                    {
                        "name": "customerId",
                        "in": "query",
                        "required": true,
                        "type": "number",
                        "format": "integer"
                    },
                    {
                        "name": "id",
                        "in": "query",
                        "required": true,
                        "type": "number",
                        "format": "integer"
                    }
                ],
                "responses": {
                    "200": {
                        "description": "Successful operation"
                    }
                }
            }
        },
        "/customer/{customerId}/creditcard": {
            "post": {
                "description": "Adds credit card information to the customer.\n",
                "parameters": [
                    {
                        "name": "body",
                        "required": true,
                        "schema": {
                            "$ref": "#/definitions/CreditCard"
                        }
                    }
                ],
                "responses": {
                    "201": {
                        "description": "Credit card is created"
                    }
                }
            },
            "get": {
                "description": "Returns the credit card of the customer.\n",
                "parameters": [
                    {
                        "name": "customerId",
                        "in": "query",
                        "required": true,
                        "type": "number",
                        "format": "integer"
                    }
                ],
                "responses": {
                    "200": {
                        "description": "Successful operation",
                        "schema": {
                            "$ref": "#/definitions/CreditCard"
                        }
                    }
                }
            },
            "put": {
                "description": "Updates credit card of the customer.\n",
                "parameters": [
                    {
                        "name": "body",
                        "required": true,
                        "schema": {
                            "$ref": "#/definitions/CreditCard"
                        }
                    }
                ],
                "responses": {
                    "200": {
                        "description": "Successful operation"
                    }
                }
            },
            "delete": {
                "description": "Removes the credit card of the customer.\n",
                "parameters": [
                    {
                        "name": "customerId",
                        "in": "query",
                        "required": true,
                        "type": "number",
                        "format": "integer"
                    }
                ],
                "responses": {
                    "200": {
                        "description": "Successful operation"
                    }
                }
            }
        },
        "/customers/{id}/orders": {
            "get": {
                "description": "Returns the orders of the customer.\n",
                "parameters": [
                    {
                        "name": "id",
                        "in": "query",
                        "required": true,
                        "type": "index",
                        "format": "integer"
                    }
                ],
                "responses": {
                    "200": {
                        "description": "Successful operation",
                        "schema": {
                            "type": "array",
                            "items": {
                                "$ref": "#/definitions/Order"
                            }
                        }
                    }
                }
            }
        },
        "/orders": {
            "post": {
                "description": "Creates an order from the items in the cart.\n",
                "parameters": [
                    {
                        "name": "body",
                        "required": true,
                        "schema": {
                            "$ref": "#/definitions/Order"
                        }
                    }
                ],
                "responses": {
                    "200": {
                        "description": "Successful operation"
                    }
                }
            }
        },
        "/orders/{orderId}": {
            "get": {
                "description": "Returns the specified order of the customer.\n",
                "parameters": [
                    {
                        "name": "customerId",
                        "in": "query",
                        "required": true,
                        "type": "number",
                        "format": "integer"
                    },
                    {
                        "name": "orderId",
                        "in": "query",
                        "required": true,
                        "type": "number",
                        "format": "integer"
                    }
                ],
                "responses": {
                    "200": {
                        "description": "Successful operation",
                        "schema": {
                            "$ref": "#/definitions/Order"
                        }
                    }
                }
            },
            "delete": {
                "description": "Cancels the order if it is not shipped yet.\n",
                "parameters": [
                    {
                        "name": "customerId",
                        "in": "query",
                        "required": true,
                        "type": "index",
                        "format": "integer"
                    },
                    {
                        "name": "orderId",
                        "in": "query",
                        "required": true,
                        "type": "index",
                        "format": "integer"
                    }
                ],
                "responses": {
                    "200": {
                        "description": "Successful operation"
                    }
                }
            }
        },
        "/orders/{orderId}/items": {
            "post": {
                "description": "Adds an item to the order\n",
                "parameters": [
                    {
                        "name": "orderId",
                        "in": "query",
                        "required": true,
                        "type": "index",
                        "format": "integer"
                    },
                    {
                        "name": "body",
                        "required": true,
                        "schema": {
                            "$ref": "#/definitions/CartItem"
                        }
                    }
                ],
                "responses": {
                    "200": {
                        "description": "Successful operation"
                    }
                }
            }
        },
        "/orders/{orderId}/items/{productId}": {
            "post": {
                "description": "Removes an item from the order.\n",
                "parameters": [
                    {
                        "name": "orderId",
                        "in": "query",
                        "required": true,
                        "type": "index",
                        "format": "integer"
                    },
                    {
                        "name": "productId",
                        "in": "query",
                        "required": true,
                        "type": "index",
                        "format": "integer"
                    }
                ],
                "responses": {
                    "200": {
                        "description": "Successful operation"
                    }
                }
            }
        },
        "/orders/{orderId}/payment": {
            "post": {
                "description": "Pays for the specified order of the customer.\n",
                "parameters": [
                    {
                        "name": "customerId",
                        "in": "query",
                        "required": true,
                        "type": "index",
                        "format": "integer"
                    },
                    {
                        "name": "orderId",
                        "in": "query",
                        "required": true,
                        "type": "index",
                        "format": "integer"
                    }
                ],
                "responses": {
                    "200": {
                        "description": "Successful operation"
                    }
                }
            }
        },
        "/orders/{orderId}/status": {
            "get": {
                "description": "Returns the status of the specified order.\n",
                "parameters": [
                    {
                        "name": "customerId",
                        "in": "query",
                        "required": true,
                        "type": "index",
                        "format": "integer"
                    },
                    {
                        "name": "orderId",
                        "in": "query",
                        "required": true,
                        "type": "index",
                        "format": "integer"
                    }
                ],
                "responses": {
                    "200": {
                        "description": "Successful operation"
                    }
                }
            }
        },
        "/customers/{id}/cart": {
            "get": {
                "description": "Returns the content of the cart of the customer.\n",
                "parameters": [
                    {
                        "name": "id",
                        "in": "query",
                        "required": true,
                        "type": "index",
                        "format": "integer"
                    }
                ],
                "responses": {
                    "200": {
                        "description": "Successful operation",
                        "schema": {
                            "$ref": "#/definitions/CartItem"
                        }
                    }
                }
            },
            "post": {
                "description": "Adds an item to the cart of the customer.\n",
                "parameters": [
                    {
                        "name": "body",
                        "required": true,
                        "schema": {
                            "$ref": "#/definitions/CartItem"
                        }
                    }
                ],
                "responses": {
                    "200": {
                        "description": "Cart item is added"
                    }
                }
            }
        },
        "/customers/{id}/cart/{cartId}": {
            "put": {
                "description": "Updates an item in the cart.\n",
                "parameters": [
                    {
                        "name": "id",
                        "in": "query",
                        "required": true,
                        "type": "index",
                        "format": "integer"
                    },
                    {
                        "name": "cartId",
                        "in": "query",
                        "required": true,
                        "type": "index",
                        "format": "integer"
                    }
                ],
                "responses": {
                    "200": {
                        "description": "Successful operation"
                    }
                }
            },
            "delete": {
                "description": "Removes an item from the cart.\n",
                "parameters": [
                    {
                        "name": "id",
                        "in": "query",
                        "required": true,
                        "type": "index",
                        "format": "integer"
                    },
                    {
                        "name": "cartId",
                        "in": "query",
                        "required": true,
                        "type": "index",
                        "format": "integer"
                    }
                ],
                "responses": {
                    "200": {
                        "description": "Successful operation"
                    }
                }
            }
        },
        "/sellers": {
            "get": {
                "description": "Retrieve list of sellers.\n",
                "responses": {
                    "200": {
                        "description": "Successful operation"
                    }
                }
            },
            "post": {
                "description": "Create a new selller\n",
                "parameters": [
                    {
                        "name": "body",
                        "required": true,
                        "schema": {
                            "$ref": "#/definitions/Seller"
                        }
                    }
                ],
                "responses": {
                    "201": {
                        "description": "A new seller is created."
                    }
                }
            }
        },
        "/sellers/{sellerId}": {
            "get": {
                "description": "Returns the specified seller information.\n",
                "parameters": [
                    {
                        "name": "sellerId",
                        "in": "query",
                        "required": true,
                        "type": "index",
                        "format": "integer"
                    }
                ],
                "responses": {
                    "200": {
                        "description": "Successful operation",
                        "schema": {
                            "$ref": "#/definitions/Seller"
                        }
                    }
                }
            },
            "put": {
                "description": "Updates the seller information.\n",
                "parameters": [
                    {
                        "name": "sellerId",
                        "in": "query",
                        "required": true,
                        "type": "index",
                        "format": "integer"
                    },
                    {
                        "name": "body",
                        "required": true,
                        "schema": {
                            "$ref": "#/definitions/Seller"
                        }
                    }
                ],
                "responses": {
                    "200": {
                        "description": "Successful operation"
                    }
                }
            },
            "delete": {
                "description": "Delete a seller.\n",
                "parameters": [
                    {
                        "name": "sellerId",
                        "in": "query",
                        "required": true,
                        "type": "number",
                        "format": "integer"
                    }
                ]
            }
        },
        "/sellers/{sellerId}/login": {
            "get": {
                "description": "Retrieve login information of the seller.\n",
                "parameters": [
                    {
                        "name": "sellerId",
                        "in": "query",
                        "required": true,
                        "type": "number",
                        "format": "integer"
                    }
                ],
                "responses": {
                    "200": {
                        "description": "Successful operation"
                    }
                }
            }
        },
        "/sellers/{sellerId}/products": {
            "get": {
                "description": "Lists all the  products of the seller.\n",
                "parameters": [
                    {
                        "name": "sellerId",
                        "in": "query",
                        "required": true,
                        "type": "index",
                        "format": "integer"
                    }
                ],
                "responses": {
                    "200": {
                        "description": "Successful operation",
                        "schema": {
                            "type": "array",
                            "items": {
                                "$ref": "#/definitions/Product"
                            }
                        }
                    }
                }
            }
        },
        "/sellers/{sellerId}/reviews": {
            "get": {
                "description": "List all the reviews of the seller.\n",
                "parameters": [
                    {
                        "name": "sellerId",
                        "in": "query",
                        "required": true,
                        "type": "index",
                        "format": "integer"
                    }
                ],
                "responses": {
                    "200": {
                        "description": "Successful operation"
                    }
                }
            },
            "post": {
                "description": "Create a review for the seller.\n",
                "parameters": [
                    {
                        "name": "sellerId",
                        "in": "query",
                        "required": true,
                        "type": "index",
                        "format": "integer"
                    },
                    {
                        "name": "body",
                        "required": true,
                        "schema": {
                            "$ref": "#/definitions/Review"
                        }
                    }
                ],
                "responses": {
                    "200": {
                        "description": "Successful operation"
                    }
                }
            }
        },
        "/sellers/{sellerId}/reviews/{id}": {
            "get": {
                "description": "Retrieve the specified review of the seller.\n",
                "parameters": [
                    {
                        "name": "sellerId",
                        "in": "query",
                        "required": true,
                        "type": "index",
                        "format": "integer"
                    },
                    {
                        "name": "id",
                        "in": "query",
                        "required": true,
                        "type": "index",
                        "format": "integer"
                    }
                ],
                "responses": {
                    "200": {
                        "description": "Successful operation",
                        "schema": {
                            "$ref": "#/definitions/Review"
                        }
                    }
                }
            }
        },
        "/sellers/{sellerId}/orders/fulfillment": {
            "get": {
                "description": "Get the list of orders to be fulfilled.\n",
                "parameters": [
                    {
                        "name": "sellerId",
                        "in": "query",
                        "required": true,
                        "type": "index",
                        "format": "integer"
                    }
                ],
                "responses": {
                    "200": {
                        "description": "Successful operation"
                    }
                }
            }
        },
        "/sellers/{sellerId}/orders/{oId}/fulfillment/{iId}/{trackingNumber}": {
            "post": {
                "description": "Fulfill an item of the Order\n",
                "parameters": [
                    {
                        "name": "sellerId",
                        "in": "query",
                        "required": true,
                        "type": "index",
                        "format": "integer"
                    },
                    {
                        "name": "oId",
                        "in": "query",
                        "description": "order id",
                        "required": true,
                        "type": "index",
                        "format": "integer"
                    },
                    {
                        "name": "iId",
                        "in": "query",
                        "description": "item id",
                        "required": true,
                        "type": "index",
                        "format": "integer"
                    }
                ],
                "responses": {
                    "200": {
                        "description": "Order is fulfilled."
                    }
                }
            }
        },
        "/products": {
            "post": {
                "description": "Creates a new product\n",
                "parameters": [
                    {
                        "name": "body",
                        "required": true,
                        "schema": {
                            "$ref": "#/definitions/Product"
                        }
                    }
                ],
                "responses": {
                    "201": {
                        "description": "A new product is created."
                    }
                }
            },
            "get": {
                "description": "Lists all the products.\n",
                "responses": {
                    "200": {
                        "description": "Successful operation",
                        "schema": {
                            "type": "array",
                            "items": {
                                "$ref": "#/definitions/Product"
                            }
                        }
                    }
                }
            }
        },
        "/products/{productId}": {
            "get": {
                "description": "Receive product information.\n",
                "parameters": [
                    {
                        "name": "productId",
                        "in": "query",
                        "required": true,
                        "type": "index",
                        "format": "integer"
                    }
                ],
                "responses": {
                    "200": {
                        "description": "Successful operation"
                    }
                }
            },
            "put": {
                "description": "Updates the product.\n",
                "parameters": [
                    {
                        "name": "productId",
                        "in": "query",
                        "required": true,
                        "type": "index",
                        "format": "integer"
                    },
                    {
                        "name": "body",
                        "required": true,
                        "schema": {
                            "$ref": "#/definitions/Product"
                        }
                    }
                ],
                "responses": {
                    "200": {
                        "description": "Successful operation"
                    }
                }
            }
        },
        "/products/{productId}/details": {
            "post": {
                "description": "Creates a detail to the product.\n",
                "parameters": [
                    {
                        "name": "body",
                        "required": true,
                        "schema": {
                            "$ref": "#/definitions/Detail"
                        }
                    }
                ],
                "responses": {
                    "201": {
                        "description": "A new product detail is created."
                    }
                }
            },
            "get": {
                "description": "Lists all the details related to the product.\n",
                "parameters": [
                    {
                        "name": "productId",
                        "in": "query",
                        "required": true,
                        "type": "number",
                        "format": "integer"
                    }
                ],
                "responses": {
                    "200": {
                        "description": "successful operation",
                        "schema": {
                            "type": "array",
                            "items": {
                                "$ref": "#/definitions/ProductDetail"
                            }
                        }
                    }
                }
            },
            "delete": {
                "description": "Removes all the product details of the specified product.\n",
                "parameters": [
                    {
                        "name": "productId",
                        "in": "query",
                        "required": true,
                        "type": "index",
                        "format": "integer"
                    }
                ],
                "responses": {
                    "200": {
                        "description": "Successful operation"
                    }
                }
            }
        },
        "/products/{productId}/details/{detailId}": {
            "put": {
                "description": "Updates the specified detail of the product.\n",
                "parameters": [
                    {
                        "name": "productId",
                        "in": "query",
                        "required": true,
                        "type": "index",
                        "format": "integer"
                    },
                    {
                        "name": "detailId",
                        "in": "query",
                        "required": true,
                        "type": "index",
                        "format": "integer"
                    },
                    {
                        "name": "body",
                        "required": true,
                        "schema": {
                            "$ref": "#/definitions/ProductDetail"
                        }
                    }
                ],
                "responses": {
                    "200": {
                        "description": "Successful operation"
                    }
                }
            },
            "delete": {
                "description": "Removes the spesified detail of the product.\n",
                "parameters": [
                    {
                        "name": "detailId",
                        "in": "query",
                        "required": true,
                        "type": "index",
                        "format": "integer"
                    }
                ],
                "responses": {
                    "200": {
                        "description": "Successful operation"
                    }
                }
            }
        },
        "/products/{productId}/reviews": {
            "get": {
                "description": "List all the reviews of the specified product.\n",
                "parameters": [
                    {
                        "name": "productId",
                        "in": "query",
                        "required": true,
                        "type": "number",
                        "format": "integer"
                    }
                ],
                "responses": {
                    "200": {
                        "description": "successful operation",
                        "schema": {
                            "type": "array",
                            "items": {
                                "$ref": "#/definitions/Review"
                            }
                        }
                    }
                }
            },
            "post": {
                "description": "Creates a review for the specified product.\n",
                "parameters": [
                    {
                        "name": "body",
                        "required": true,
                        "schema": {
                            "$ref": "#/definitions/Review"
                        }
                    }
                ],
                "responses": {
                    "200": {
                        "description": "A review is created."
                    }
                }
            }
        },
        "/categories": {
            "get": {
                "description": "Lists all the categories.\n",
                "parameters": [
                    {
                        "name": "productId",
                        "in": "query",
                        "required": true,
                        "type": "index",
                        "format": "integer"
                    }
                ],
                "responses": {
                    "200": {
                        "description": "Successful operation",
                        "schema": {
                            "type": "array",
                            "items": {
                                "$ref": "#/definitions/Category"
                            }
                        }
                    }
                }
            },
            "post": {
                "description": "Creates a new category.\n",
                "parameters": [
                    {
                        "name": "body",
                        "required": true,
                        "schema": {
                            "$ref": "#/definitions/Category"
                        }
                    }
                ],
                "responses": {
                    "201": {
                        "description": "A new category is created."
                    }
                }
            }
        },
        "/categories/{id}": {
            "get": {
                "description": "Returns the specified category.",
                "parameters": [
                    {
                        "name": "id",
                        "in": "query",
                        "required": true,
                        "type": "index",
                        "format": "integer"
                    }
                ],
                "responses": {
                    "200": {
                        "description": "Successful operation",
                        "schema": {
                            "$ref": "#/definitions/Category"
                        }
                    }
                }
            },
            "put": {
                "description": "Updates the specified category.",
                "parameters": [
                    {
                        "name": "body",
                        "required": true,
                        "schema": {
                            "$ref": "#/definitions/Category"
                        }
                    }
                ],
                "responses": {
                    "200": {
                        "description": "Successful operation"
                    }
                }
            }
        }
    },
    "definitions": {
        "Customer": {
            "type": "object",
            "properties": {
                "first_name": {
                    "type": "string"
                },
                "last_name": {
                    "type": "string"
                },
                "username": {
                    "type": "string"
                },
                "email": {
                    "type": "string"
                },
                "phone": {
                    "type": "string"
                },
                "password": {
                    "type": "string"
                }
            }
        },
        "Address": {
            "type": "object",
            "properties": {
                "type": {
                    "type": "string"
                },
                "line1": {
                    "type": "string"
                },
                "line2": {
                    "type": "string"
                },
                "city": {
                    "type": "string"
                },
                "state": {
                    "type": "string"
                },
                "zipcode": {
                    "type": "string"
                },
                "country": {
                    "type": "string"
                }
            }
        },
        "CreditCard": {
            "type": "object",
            "properties": {
                "card_type": {
                    "type": "string"
                },
                "card_number": {
                    "type": "string"
                },
                "security_code": {
                    "type": "string"
                },
                "name_on_card": {
                    "type": "string"
                },
                "exp_month": {
                    "type": "number"
                },
                "exp_year": {
                    "type": "number"
                }
            }
        },
        "Seller": {
            "type": "object",
            "properties": {
                "email": {
                    "type": "string"
                },
                "phone": {
                    "type": "string"
                },
                "username": {
                    "type": "string"
                },
                "password": {
                    "type": "string"
                },
                "first_name": {
                    "type": "string"
                },
                "last_name": {
                    "type": "string"
                },
                "company_name": {
                    "type": "string"
                },
                "type": {
                    "type": "string"
                }
            }
        },
        "Category": {
            "type": "object",
            "properties": {
                "name": {
                    "type": "string"
                },
                "description": {
                    "type": "string"
                }
            }
        },
        "Product": {
            "type": "object",
            "properties": {
                "name": {
                    "type": "string",
                    "description": "Name of the product."
                },
                "description": {
                    "type": "string",
                    "description": "Description of product."
                },
                "unit_price": {
                    "type": "decimal",
                    "description": "unit price of the product."
                },
                "quantity": {
                    "type": "integer",
                    "description": "Total quantity of the product available."
                },
                "brand_name": {
                    "type": "string",
                    "description": "brand name of the product."
                },
                "category": {
                    "type": "integer"
                }
            }
        },
        "ProductDetail": {
            "type": "object",
            "properties": {
                "key": {
                    "type": "string"
                },
                "value": {
                    "type": "string"
                }
            }
        },
        "CartItem": {
            "type": "object",
            "properties": {
                "product": {
                    "type": "integer"
                },
                "quantity": {
                    "type": "integer"
                }
            }
        },
        "Order": {
            "type": "object",
            "properties": {
                "shipping_address": {
                    "type": "index"
                }
            }
        },
        "Login": null,
        "Review": {
            "type": "object",
            "properties": {
                "id": {
                    "type": "index"
                },
                "title": {
                    "type": "string"
                },
                "body": {
                    "type": "string"
                },
                "rating": {
                    "type": "integer"
                },
                "customer": {
                    "type": "integer"
                },
                "product": {
                    "type": "integer"
                },
                "user": {
                    "type": "string"
                }
            }
        },
        "Cart": {
            "type": "object",
            "properties": {
                "id": {
                    "type": "index"
                },
                "items": {
                    "type": "array"
                }
            }
        }
    }
}